<?xml version="1.0" encoding="utf-8"?>
<svg version="1.1" id="Layer_1" xmlns="http://www.w3.org/2000/svg" xmlns:xlink="http://www.w3.org/1999/xlink" x="0px" y="0px"
	 width="100%" viewBox="0 0 15 12" enable-background="new 0 0 15 12" xml:space="preserve" fill="inherit">
<rect x="2.539" y="3.535" transform="matrix(0.7069 -0.7073 0.7073 0.7069 -4.1456 5.0653)" width="3" height="8.001"/>
<rect x="2.843" y="4.268" transform="matrix(0.7071 -0.7071 0.7071 0.7071 -1.342 8.2958)" width="13" height="3"/>
</svg>
